[
    {
        "CourseID": 1,
        "CourseName": "Tarandowah"
    },
    {
        "CourseID": 2,
        "CourseName": "Lakeview"
    },
    {
        "CourseID": 3,
        "CourseName": "Pine Knot"
    },
    {
        "CourseID": 4,
        "CourseName": "SequinValley"
    },
    {
        "CourseID": 5,
        "CourseName": "Otter Creek"
    },
    {
        "CourseID": 6,
        "CourseName": "FireRock"
    },
    {
        "CourseID": 111,
        "CourseName": "The Ridge at Manitou"
    }
]
