[
    {
        "CourseID": 1,
        "Par": 70,
        "Rating": 68.6,
        "Slope": 122.2,
        "Tee": "White",
        "TeeID": 1
    },
    {
        "CourseID": 1,
        "Par": 70,
        "Rating": 70,
        "Slope": 125,
        "Tee": "Blue",
        "TeeID": 2
    },
    {
        "CourseID": 2,
        "Par": 71,
        "Rating": 68.6,
        "Slope": 119,
        "Tee": "White",
        "TeeID": 3
    },
    {
        "CourseID": 3,
        "Par": 71,
        "Rating": 66,
        "Slope": 120,
        "Tee": "White",
        "TeeID": 4
    },
    {
        "CourseID": 4,
        "Par": 71,
        "Rating": 67.3,
        "Slope": 124,
        "Tee": "White",
        "TeeID": 6
    },
    {
        "CourseID": 5,
        "Par": 71,
        "Rating": 69,
        "Slope": 126,
        "Tee": "White",
        "TeeID": 7
    },
    {
        "CourseID": 6,
        "Par": 72,
        "Rating": 67,
        "Slope": 119,
        "Tee": "White",
        "TeeID": 8
    },
    {
        "CourseID": 111,
        "Par": 72,
        "Rating": 68.6,
        "Slope": 123,
        "Tee": "White",
        "TeeID": 18
    },
    {
        "CourseID": 111,
        "Par": 72,
        "Rating": 66.3,
        "Slope": 117,
        "Tee": "White-Red",
        "TeeID": 19
    }
]